{"Dict_1":{
    "Dict_1_1":{
        "Dict_1_1_1":{"data1":[1,222],"data2":"aaa"},
        "Dict_1_1_2":{"data1":"b","data2":"c"}},
    "Dict_1_2":{
        "Dict_1_2_1":{"data1":"d","data2":"e"},
        "Dict_1_2_2":{"data1":"f","data2":"g"}},
    "Str_1":"AAA"
    },
"Dict_2":{
    "Dict_2_1":{
        "Dict_2_1_1":{"data1":"h","data2":"i"},
        "Dict_2_1_2":{"data1":"j","data2":"k"}},
    "Dict_2_2":{
        "Dict_2_2_1":{"data1":"lll","data2":"m"},
        "Dict_2_2_2":{"data1":"n","data2":"o"}},
    "Str_2":"BBB"
    },
"List1":[[3,444],{"data1":5,"data2":666},7,888],
"Str":"C",
"add_list_1":[[11,22],{"data1":33,"data2":44},55],
"add_list_2":[["aaa","bb"]],
"add_str":"AAA",
"add_dict_1":{"dict_1_1":{"str_1_1":"ccc"}},
"add_dict_2":{"data1":[66,77,888],"data2":"dd"}
}




