{
    "Dict_1":{
        "Dict_1_1":{
            "Dict_1_1_1":{"data1":[1,2],"data2":"a"},
            "Dict_1_1_2":{"data1":"b","data2":"c"}},
        "Dict_1_2":{
            "Dict_1_2_1":{"data1":3,"data2":"e"},
            "Dict_1_2_2":{"data1":"f","data2":"g"}},
        "Str_1":"A"
        },
    "Dict_2":{
        "Dict_2_1":{
            "Dict_2_1_1":{"data1":"h","data2":"i"},
            "Dict_2_1_2":{"data1":"j","data2":"k"}},
        "Dict_2_2":{
            "Dict_2_2_1":{"data1":"l","data2":"m"},
            "Dict_2_2_2":{"data1":"n","data2":"o"}},
        "Str_2":"B"
        },
    "List1":[[3,4],{"data1":5,"data2":6},7],
    "Str":"C"
}




